Wu.hp2
…
# print the full list of distinct locations and their counts
distinct_locations

# A tibble: 54 × 2
   location       count
   <chr>          <int>
 1 New York, NY       3
 2 Boston, MA         2
 3 Florida, USA       2
 4 Las Vegas, NV      2
 5 Miami, FL          2
 6 Miami, Florida     2
 7 Toronto            2
 8 USA                2
 9 617                1
10 Akron, OH          1
# … with 44 more rows
…
